Data Wrangling Final Project
…
player_raw <- backup_player_raw
player_raw

## # A tibble: 1,200 x 18
##    X1       X2 X3    X4    X5       X6    X7 X8       X9   X10   X11   X12   X13
##    <chr> <dbl> <chr> <chr> <chr> <dbl> <dbl> <chr> <dbl> <dbl> <dbl> <dbl> <dbl>
##  1 Lion    93 RW    Rare  103K      4     4 "M \    85    92    91    95    38
##  2 Cris    92 ST    Rare  279K      5     4 "H \    89    93    81    89    35
##  3 Kevi    91 CAM   Rare  66.5K     4     5 "H \    76    86    93    88    64
##  4 Robe    91 ST    Rare  60.5K     4     4 "H \    78    91    78    86    43
##  5 Neym    91 LW    Rare  229K      5     5 "H \    91    85    86    94    36
##  6 Jan     91 GK    Rare  60K       1     3 "M \    87    92    78    90    50
##  7 Virg    90 CB    Rare  62.5K     2     3 "M \    76    60    71    72    91
##  8 Moha    90 RW    Rare  67K       4     3 "H \    93    86    81    90    45
##  9 Sadi    90 LW    Rare  54.5K     4     4 "H \    94    85    80    90    44
## 10 Alis    90 GK    Rare  48K       1     3 "M \    86    88    85    89    52
## #  with 1,190 more rows, and 5 more variables: X14 <dbl>, X15 <chr>,
## #   X16 <dbl>, X17 <dbl>, X18 <chr>
…
as.tibble(FIFA)

## Warning: `as.tibble()` is deprecated as of tibble 2.0.0.
## Please use `as_tibble()` instead.
## The signature and semantics have changed, see `?as_tibble`.
## This warning is displayed once every 8 hours.
## Call `lifecycle::last_warnings()` to see where this warning was generated.

## # A tibble: 18,944 x 106
##    sofifa_id player_url short_name long_name   age dob        height_cm
##        <dbl> <chr>      <chr>      <chr>     <dbl> <date>         <dbl>
##  1    158023 https://s L. Messi   Lionel A    33 1987-06-24       170
##  2     20801 https://s Cristiano Cristian    35 1985-02-05       187
##  3    200389 https://s J. Oblak   Jan Oblak    27 1993-01-07       188
##  4    188545 https://s R. Lewand Robert L    31 1988-08-21       184
##  5    190871 https://s Neymar Jr  Neymar d    28 1992-02-05       175
##  6    192985 https://s K. De Bru Kevin De    29 1991-06-28       181
##  7    231747 https://s K. Mbapp  Kylian M    21 1998-12-20       178
##  8    192448 https://s M. ter St Marc-And    28 1992-04-30       187
##  9    203376 https://s V. van Di Virgil v    28 1991-07-08       193
## 10    212831 https://s Alisson    Alisson     27 1992-10-02       191
## #  with 18,934 more rows, and 99 more variables: weight_kg <dbl>,
## #   nationality <chr>, club_name <chr>, league_name <chr>, league_rank <dbl>,
## #   overall <dbl>, potential <dbl>, value_eur <dbl>, wage_eur <dbl>,
## #   player_positions <chr>, preferred_foot <chr>,
## #   international_reputation <dbl>, weak_foot <dbl>, skill_moves <dbl>,
## #   work_rate <chr>, body_type <chr>, real_face <chr>,
## #   release_clause_eur <dbl>, player_tags <chr>, team_position <chr>,
## #   team_jersey_number <dbl>, loaned_from <chr>, joined <date>,
## #   contract_valid_until <dbl>, nation_position <chr>,
…
## [1] 0

player_final_1 <- player_raw %>%
  select(X1, X2, X3, X5, X6, X7, X9, X10, X11, X12, X13, X14) %>%
  mutate(X5 = str_replace_all(X5, '[K]', '')) %>%
  mutate(X5 = as.numeric(X5)) %>%
  filter(X5 < 500) %>%
  mutate(X5 = X5*1000) %>%
  filter(X3 != c("GK")) %>%
  rename("Name"= X1,"Rating" = X2, "Position" = X3,"Price" = X5,"skill_moves" = X6,"weak_foot" = X7,"pace" = X9,"shooting" = X10," passing" = X11,"dribbling" = X12,"defending" = X13,"physic" = X14)

player_final_1

## # A tibble: 789 x 12
##    Name  Rating Position  Price skill_moves weak_foot  pace shooting ` passing`
##    <chr>  <dbl> <chr>     <dbl>       <dbl>     <dbl> <dbl>    <dbl>      <dbl>
##  1 Lion     93 RW       103000           4         4    85       92         91
##  2 Cris     92 ST       279000           5         4    89       93         81
##  3 Kevi     91 CAM       66500           4         5    76       86         93
##  4 Robe     91 ST        60500           4         4    78       91         78
##  5 Neym     91 LW       229000           5         5    91       85         86
##  6 Virg     90 CB        62500           2         3    76       60         71
##  7 Moha     90 RW        67000           4         3    93       86         81
##  8 Sadi     90 LW        54500           4         4    94       85         80
##  9 Kyli     90 ST       307000           5         4    96       86         78
## 10 Serg     89 ST        39000           4         4    78       90         77
## #  with 779 more rows, and 3 more variables: dribbling <dbl>, defending <dbl>,
## #   physic <dbl>

player_final_2 <- player_raw %>%
  select(X1, X2, X3, X5, X6, X7, X9, X10, X11, X12, X13, X14) %>%
  mutate(X5 = str_replace_all(X5, '[K]', '')) %>%
  mutate(X5 = as.numeric(X5)) %>%
  filter(X5 > 500) %>%
  filter(X3 != c("GK")) %>%
  rename("Name"= X1,"Rating" = X2, "Position" = X3,"Price" = X5,"skill_moves" = X6,"weak_foot" = X7,"pace" = X9,"shooting" = X10," passing" = X11,"dribbling" = X12,"defending" = X13,"physic" = X14)

player_final_2

## # A tibble: 281 x 12
##    Name  Rating Position Price skill_moves weak_foot  pace shooting ` passing`
##    <chr>  <dbl> <chr>    <dbl>       <dbl>     <dbl> <dbl>    <dbl>      <dbl>
##  1 Mri     82 RWB        950           3         3    82       61         74
##  2 Pier     80 CDM        800           3         4    61       70         76
##  3 Rada     80 ST         700           3         4    64       80         69
##  4 Asie     80 CDM        850           3         3    52       71         78
##  5 Grze     80 CDM        950           3         3    68       76         72
##  6 Pave     80 RWB        800           3         2    74       43         74
##  7 Will     80 CDM        900           3         4    43       57         76
##  8 Maur     80 CDM        950           3         3    52       58         71
##  9 Niko     80 CAM        950           3         4    83       75         76
## 10 Rica     80 CF         950           4         4    81       78         77
## #  with 271 more rows, and 3 more variables: dribbling <dbl>, defending <dbl>,
## #   physic <dbl>

player_final <- rbind(player_final_1, player_final_2) %>%
  filter(Price > 0)

player_final

## # A tibble: 1,037 x 12
##    Name  Rating Position  Price skill_moves weak_foot  pace shooting ` passing`
##    <chr>  <dbl> <chr>     <dbl>       <dbl>     <dbl> <dbl>    <dbl>      <dbl>
##  1 Lion     93 RW       103000           4         4    85       92         91
##  2 Cris     92 ST       279000           5         4    89       93         81
##  3 Kevi     91 CAM       66500           4         5    76       86         93
##  4 Robe     91 ST        60500           4         4    78       91         78
##  5 Neym     91 LW       229000           5         5    91       85         86
##  6 Virg     90 CB        62500           2         3    76       60         71
##  7 Moha     90 RW        67000           4         3    93       86         81
##  8 Sadi     90 LW        54500           4         4    94       85         80
##  9 Kyli     90 ST       307000           5         4    96       86         78
## 10 Serg     89 ST        39000           4         4    78       90         77
## #  with 1,027 more rows, and 3 more variables: dribbling <dbl>,
## #   defending <dbl>, physic <dbl>
…
# Complete Dataset
FIFA_Final <- FIFA %>%
  select(short_name, overall, value_eur, wage_eur, skill_moves, weak_foot, pace, shooting, passing, dribbling, defending, physic) %>%
  rename("Name" = short_name, "Rating" = overall)
FIFA_Final <- na.omit(FIFA_Final)
FIFA_Final

## # A tibble: 16,861 x 12
##    Name  Rating value_eur wage_eur skill_moves weak_foot  pace shooting passing
##    <chr>  <dbl>     <dbl>    <dbl>       <dbl>     <dbl> <dbl>    <dbl>   <dbl>
##  1 L. M     93  67500000   560000           4         4    85       92      91
##  2 Cris     92  46000000   220000           5         4    89       93      81
##  3 R. L     91  80000000   240000           4         4    78       91      78
##  4 Neym     91  90000000   270000           5         5    91       85      86
##  5 K. D     91  87000000   370000           4         5    76       86      93
##  6 K. M     90 105500000   160000           5         4    96       86      78
##  7 V. v     90  75500000   210000           2         3    76       60      71
##  8 S. M     90  78000000   250000           4         4    94       85      80
##  9 M. S     90  78000000   250000           4         3    93       86      81
## 10 S. A     89  53000000   300000           4         4    78       90      77
## #  with 16,851 more rows, and 3 more variables: dribbling <dbl>,
## #   defending <dbl>, physic <dbl>

3. Join on two dataset

player_final_last <- extract(player_final, Name, c("FirstName", "LastName"), "([^ ]+) (.*)")
player_final_last

## # A tibble: 1,037 x 13
##    FirstName LastName Rating Position  Price skill_moves weak_foot  pace
##    <chr>     <chr>     <dbl> <chr>     <dbl>       <dbl>     <dbl> <dbl>
##  1 Lionel    Messi        93 RW       103000           4         4    85
##  2 Cristiano Ronaldo      92 ST       279000           5         4    89
##  3 Kevin     De Bruy     91 CAM       66500           4         5    76
##  4 Robert    Lewando     91 ST        60500           4         4    78
##  5 Neymar    Jr           91 LW       229000           5         5    91
##  6 Virgil    van Dijk     90 CB        62500           2         3    76
##  7 Mohamed   Salah        90 RW        67000           4         3    93
##  8 Sadio     Man         90 LW        54500           4         4    94
##  9 Kylian    Mbapp       90 ST       307000           5         4    96
## 10 Sergio    Agero       89 ST        39000           4         4    78
## #  with 1,027 more rows, and 5 more variables: shooting <dbl>, `
## #   passing` <dbl>, dribbling <dbl>, defending <dbl>, physic <dbl>

FIFA_Final_last <- extract(FIFA_Final, Name, c("FirstName", "LastName"), "([^ ]+) (.*)")
FIFA_Final_last

## # A tibble: 16,861 x 13
##    FirstName LastName Rating value_eur wage_eur skill_moves weak_foot  pace
##    <chr>     <chr>     <dbl>     <dbl>    <dbl>       <dbl>     <dbl> <dbl>
##  1 L.        Messi        93  67500000   560000           4         4    85
##  2 Cristiano Ronaldo      92  46000000   220000           5         4    89
##  3 R.        Lewando     91  80000000   240000           4         4    78
##  4 Neymar    Jr           91  90000000   270000           5         5    91
##  5 K.        De Bruy     91  87000000   370000           4         5    76
##  6 K.        Mbapp       90 105500000   160000           5         4    96
##  7 V.        van Dijk     90  75500000   210000           2         3    76
##  8 S.        Man         90  78000000   250000           4         4    94
##  9 M.        Salah        90  78000000   250000           4         3    93
## 10 S.        Agero       89  53000000   300000           4         4    78
## #  with 16,851 more rows, and 5 more variables: shooting <dbl>, passing <dbl>,
## #   dribbling <dbl>, defending <dbl>, physic <dbl>

FIFA_players <- inner_join(player_final_last, FIFA_Final_last, by = c("LastName", "Rating", "pace")) %>%
  select(LastName, Rating, Position, Price, value_eur, wage_eur, skill_moves.x, weak_foot.x, pace, shooting.x, passing, dribbling.x, defending.x, physic.x) %>%
  rename("skill_moves" = skill_moves.x, "weak_foot" = weak_foot.x, "shooting" = shooting.x, "dribbling" = dribbling.x, "defending" = defending.x, "physic" = physic.x)

FIFA_players

## # A tibble: 772 x 14
##    LastName Rating Position  Price value_eur wage_eur skill_moves weak_foot
##    <chr>     <dbl> <chr>     <dbl>     <dbl>    <dbl>       <dbl>     <dbl>
##  1 Messi        93 RW       103000  67500000   560000           4         4
##  2 Ronaldo      92 ST       279000  46000000   220000           5         4
##  3 De Bruy     91 CAM       66500  87000000   370000           4         5
##  4 Lewando     91 ST        60500  80000000   240000           4         4
##  5 Jr           91 LW       229000  90000000   270000           5         5
##  6 van Dijk     90 CB        62500  75500000   210000           2         3
##  7 Salah        90 RW        67000  78000000   250000           4         3
##  8 Man         90 LW        54500  78000000   250000           4         4
##  9 Mbapp       90 ST       307000 105500000   160000           5         4
## 10 Agero       89 ST        39000  53000000   300000           4         4
## #  with 762 more rows, and 6 more variables: pace <dbl>, shooting <dbl>,
## #   passing <dbl>, dribbling <dbl>, defending <dbl>, physic <dbl>
…
#filter to different position
# Attacker
FIFA_ST <- FIFA_players %>%
  filter(Position == c("ST")) %>%
  select(Rating, Price, value_eur, wage_eur, skill_moves, weak_foot, pace, shooting, passing, dribbling, defending, physic)
FIFA_ST

## # A tibble: 105 x 12
##    Rating  Price value_eur wage_eur skill_moves weak_foot  pace shooting passing
##     <dbl>  <dbl>     <dbl>    <dbl>       <dbl>     <dbl> <dbl>    <dbl>   <dbl>
##  1     92 279000  46000000   220000           5         4    89       93      81
##  2     91  60500  80000000   240000           4         4    78       91      78
##  3     90 307000 105500000   160000           5         4    96       86      78
##  4     89  39000  53000000   300000           4         4    78       90      77
##  5     88  31500  71000000   220000           3         4    68       91      80
##  6     87  19000  48500000   125000           3         4    84       88      67
##  7     87  25500  50500000   290000           4         3    79       85      84
##  8     87  20250  31500000   280000           3         4    70       90      82
##  9     86  26000  28000000   160000           3         3    88       85      66
## 10     85   7800  45000000   165000           3         4    81       83      76
## #  with 95 more rows, and 3 more variables: dribbling <dbl>, defending <dbl>,
## #   physic <dbl>
…
FIFA_attacker <- rbind(FIFA_ST, FIFA_CF)
FIFA_attacker

## # A tibble: 119 x 12
##    Rating  Price value_eur wage_eur skill_moves weak_foot  pace shooting passing
##     <dbl>  <dbl>     <dbl>    <dbl>       <dbl>     <dbl> <dbl>    <dbl>   <dbl>
##  1     92 279000  46000000   220000           5         4    89       93      81
##  2     91  60500  80000000   240000           4         4    78       91      78
##  3     90 307000 105500000   160000           5         4    96       86      78
##  4     89  39000  53000000   300000           4         4    78       90      77
##  5     88  31500  71000000   220000           3         4    68       91      80
##  6     87  19000  48500000   125000           3         4    84       88      67
##  7     87  25500  50500000   290000           4         3    79       85      84
##  8     87  20250  31500000   280000           3         4    70       90      82
##  9     86  26000  28000000   160000           3         3    88       85      66
## 10     85   7800  45000000   165000           3         4    81       83      76
## #  with 109 more rows, and 3 more variables: dribbling <dbl>, defending <dbl>,
## #   physic <dbl>
…
# Winger
FIFA_LM <- FIFA_players %>%
  filter(Position == c("LM")) %>%
  select(Rating, Price, value_eur, wage_eur, skill_moves, weak_foot, pace, shooting, passing, dribbling, defending, physic)
FIFA_LM

## # A tibble: 48 x 12
##    Rating Price value_eur wage_eur skill_moves weak_foot  pace shooting passing
##     <dbl> <dbl>     <dbl>    <dbl>       <dbl>     <dbl> <dbl>    <dbl>   <dbl>
##  1     85 19250  53000000   150000           5         4    91       83      78
##  2     85  7600  51500000   100000           4         3    93       81      79
##  3     84  4100  40500000    94000           4         3    93       76      77
##  4     84 23750  30500000   120000           5         3    93       73      79
##  5     84  4000  30500000   120000           5         3    93       73      79
##  6     83  2900  34500000   105000           4         2    87       79      78
##  7     83  1800  27000000    78000           4         4    84       77      81
##  8     83  2300  27000000    82000           5         3    90       75      72
##  9     83  1300  27000000    23000           4         3    94       73      74
## 10     83  1600  27000000    45000           3         2    88       76      79
## #  with 38 more rows, and 3 more variables: dribbling <dbl>, defending <dbl>,
## #   physic <dbl>

FIFA_LW <- FIFA_players %>%
  filter(Position == c("LW")) %>%
  select(Rating, Price, value_eur, wage_eur, skill_moves, weak_foot, pace, shooting, passing, dribbling, defending, physic)
FIFA_LW

## # A tibble: 40 x 12
##    Rating  Price value_eur wage_eur skill_moves weak_foot  pace shooting passing
##     <dbl>  <dbl>     <dbl>    <dbl>       <dbl>     <dbl> <dbl>    <dbl>   <dbl>
##  1     91 229000  90000000   270000           5         5    91       85      86
##  2     90  54500  78000000   250000           4         4    94       85      80
##  3     88  31000  72500000   270000           4         3    93       81      79
##  4     88  28500  58000000   350000           4         4    88       82      83
##  5     85   8200  37500000   120000           4         4    88       78      83
##  6     84   5100  42500000    47000           3         3    81       82      80
##  7     83   2700  35500000   175000           5         5    92       77      77
##  8     82   3700  13500000    59000           4         4    70       79      84
##  9     82   2300  29000000   160000           4         3    79       80      81
## 10     81   1900  24500000    83000           4         4    89       70      72
## #  with 30 more rows, and 3 more variables: dribbling <dbl>, defending <dbl>,
## #   physic <dbl>

FIFA_RM <- FIFA_players %>%
  filter(Position == c("RM")) %>%
  select(Rating, Price, value_eur, wage_eur, skill_moves, weak_foot, pace, shooting, passing, dribbling, defending, physic)
FIFA_RM

## # A tibble: 54 x 12
##    Rating Price value_eur wage_eur skill_moves weak_foot  pace shooting passing
##     <dbl> <dbl>     <dbl>    <dbl>       <dbl>     <dbl> <dbl>    <dbl>   <dbl>
##  1     87 19500  69500000    82000           5         3    83       74      81
##  2     85  8300  47500000   100000           4         4    82       83      78
##  3     84  3200  29500000    25000           3         4    75       78      83
##  4     84  3300  32500000    25000           4         5    84       68      78
##  5     83  2100  35000000    92000           3         2    94       70      76
##  6     83  1300  24500000    59000           4         4    88       77      79
##  7     82  1100  28000000    98000           4         2    89       78      75
##  8     82  1600  21000000    78000           4         3    90       76      74
##  9     82  1900  28000000    65000           4         4    84       80      75
## 10     81  1400  26500000    97000           4         4    82       76      78
## #  with 44 more rows, and 3 more variables: dribbling <dbl>, defending <dbl>,
## #   physic <dbl>
…
